Aenigmarchaeota	#b3d2d5
Diapherotrites	#AFDEA0
Nanohaloarchaeota	#BCCFBE
Pacearchaeota	#ffdeab
Parvarchaeota	#00688b
Woesearchaeota	#87cefa
MHVG	#20B2AA
Nanoarchaeota	#40407f
Korarchaeota	#8F5E89
Bathyarchaeota	#964D4D
Lokiarchaeota	#e8731e
Thorarchaeota	#f94e32
Crenarchaeota	#6c6c3b
Euryarchaeota	#be8729
Thaumarchaeota	#ae124d	
Alphaproteobacteria	#366F70
Betaproteobacteria	#52A9AB
Gammaproteobacteria	#5DD1D4
Epsilonproteobacteria	#7DBBBD
Deltaproteobacteria	#05CEE8
Zetaproteobacteria	#A4D9E0
Melainabacteria	#BA667F
Actinobacteria	#77A325
Tenericutes	#A49FAF
Firmicutes	#89CCF8
Bacteroidetes	#D86827
Nitrospirae	#6D5A40
Verrucomicrobia	#808242
Thermodesulfobacteria	#1F423C	
Cyanobacteria	#854B5C
Armatimonadetes	#A3B4A2
Thermotogae	#BB8879
Chlamydiae	#F5EFAF
Chrysiogenetes	#A0BB79
Fibrobacteres	#C59799
Aquificae	#C0542D
Planctomycetes	#8E6C85
Fusobacteria	#4BAA82
Deinococcus-Thermus	#75DD8F
Deferribacteres	#BB799C
Nitrospinae	#C7F79F
Spirochaetes	#79BB7D
Chloroflexi	#467B6B
Acidobacteria	#934B17
Chlorobi	#00A6A6
Synergistetes	#D5A76C
Parcubacteria	#A6A632
Microgenomates  #9C7460
Acidobacteria   #9D93AC
TM6	#B7C8B7
Planctomycetes	#ABC837
Verrucomicrobia	#8DD35F
Atribacteria	#36486b
Hydrogenedentes	#618685
Aerophobetes	#e06377
Acetothermia	#622569
Elusimicrobia	#b8a9c9
Dictyoglomi	#c83349
Gemmatimonadetes	#58A86C
TA06	#f2ae72
Lentisphaerae	#ffcc5c
Cloacimonetes	#96897f
CKC4	#563f46
Saccharibacteria	#bc5a45
Gracilibacteria	#f18973
SR1	#b1cbbb
TA18	#80ced6
WCHB1-60	#92a8d1
WS6	#e4d1d1
